<svg width="159" height="64" viewBox="0 0 159 64" fill="none" xmlns="http://www.w3.org/2000/svg">
    <path d="M2.69256 2.576H7.73256C8.54323 2.576 9.20456 2.69333 9.71656 2.928C10.2286 3.16267 10.6232 3.456 10.9006 3.808C11.1779 4.16 11.3646 4.544 11.4606 4.96C11.5672 5.376 11.6206 5.76 11.6206 6.112C11.6206 6.464 11.5672 6.848 11.4606 7.264C11.3646 7.66933 11.1779 8.048 10.9006 8.4C10.6232 8.752 10.2286 9.04533 9.71656 9.28C9.20456 9.504 8.54323 9.616 7.73256 9.616H4.69256V14H2.69256V2.576ZM4.69256 7.984H7.62056C7.84456 7.984 8.0739 7.952 8.30856 7.888C8.54323 7.824 8.75656 7.72267 8.94856 7.584C9.15123 7.43467 9.31123 7.24267 9.42856 7.008C9.55656 6.76267 9.62056 6.45867 9.62056 6.096C9.62056 5.72267 9.56723 5.41333 9.46056 5.168C9.3539 4.92267 9.2099 4.73067 9.02856 4.592C8.84723 4.44267 8.63923 4.34133 8.40456 4.288C8.1699 4.23467 7.91923 4.208 7.65256 4.208H4.69256V7.984ZM16.9004 14.224C16.2391 14.224 15.6471 14.1173 15.1244 13.904C14.6124 13.68 14.1751 13.376 13.8124 12.992C13.4604 12.608 13.1884 12.1493 12.9964 11.616C12.8151 11.0827 12.7244 10.496 12.7244 9.856C12.7244 9.22667 12.8151 8.64533 12.9964 8.112C13.1884 7.57867 13.4604 7.12 13.8124 6.736C14.1751 6.352 14.6124 6.05333 15.1244 5.84C15.6471 5.616 16.2391 5.504 16.9004 5.504C17.5618 5.504 18.1484 5.616 18.6604 5.84C19.1831 6.05333 19.6204 6.352 19.9724 6.736C20.3351 7.12 20.6071 7.57867 20.7884 8.112C20.9804 8.64533 21.0764 9.22667 21.0764 9.856C21.0764 10.496 20.9804 11.0827 20.7884 11.616C20.6071 12.1493 20.3351 12.608 19.9724 12.992C19.6204 13.376 19.1831 13.68 18.6604 13.904C18.1484 14.1173 17.5618 14.224 16.9004 14.224ZM16.9004 12.784C17.3058 12.784 17.6578 12.6987 17.9564 12.528C18.2551 12.3573 18.5004 12.1333 18.6924 11.856C18.8844 11.5787 19.0231 11.2693 19.1084 10.928C19.2044 10.576 19.2524 10.2187 19.2524 9.856C19.2524 9.504 19.2044 9.152 19.1084 8.8C19.0231 8.448 18.8844 8.13867 18.6924 7.872C18.5004 7.59467 18.2551 7.37067 17.9564 7.2C17.6578 7.02933 17.3058 6.944 16.9004 6.944C16.4951 6.944 16.1431 7.02933 15.8444 7.2C15.5458 7.37067 15.3004 7.59467 15.1084 7.872C14.9164 8.13867 14.7724 8.448 14.6764 8.8C14.5911 9.152 14.5484 9.504 14.5484 9.856C14.5484 10.2187 14.5911 10.576 14.6764 10.928C14.7724 11.2693 14.9164 11.5787 15.1084 11.856C15.3004 12.1333 15.5458 12.3573 15.8444 12.528C16.1431 12.6987 16.4951 12.784 16.9004 12.784ZM21.8408 5.728H23.7768L25.3928 11.904H25.4248L26.9768 5.728H28.8168L30.3048 11.904H30.3368L32.0168 5.728H33.8728L31.2808 14H29.4088L27.8728 7.856H27.8408L26.3208 14H24.4008L21.8408 5.728ZM40.7259 9.136C40.7046 8.848 40.6406 8.57067 40.5339 8.304C40.4379 8.03733 40.2993 7.808 40.1179 7.616C39.9473 7.41333 39.7339 7.25333 39.4779 7.136C39.2326 7.008 38.9553 6.944 38.6459 6.944C38.3259 6.944 38.0326 7.00267 37.7659 7.12C37.5099 7.22667 37.2859 7.38133 37.0939 7.584C36.9126 7.776 36.7633 8.00533 36.6459 8.272C36.5393 8.53867 36.4806 8.82667 36.4699 9.136H40.7259ZM36.4699 10.336C36.4699 10.656 36.5126 10.9653 36.5979 11.264C36.6939 11.5627 36.8326 11.824 37.0139 12.048C37.1953 12.272 37.4246 12.4533 37.7019 12.592C37.9793 12.72 38.3099 12.784 38.6939 12.784C39.2273 12.784 39.6539 12.672 39.9739 12.448C40.3046 12.2133 40.5499 11.8667 40.7099 11.408H42.4379C42.3419 11.856 42.1766 12.256 41.9419 12.608C41.7073 12.96 41.4246 13.2587 41.0939 13.504C40.7633 13.7387 40.3899 13.9147 39.9739 14.032C39.5686 14.16 39.1419 14.224 38.6939 14.224C38.0433 14.224 37.4673 14.1173 36.9659 13.904C36.4646 13.6907 36.0379 13.392 35.6859 13.008C35.3446 12.624 35.0833 12.1653 34.9019 11.632C34.7313 11.0987 34.6459 10.512 34.6459 9.872C34.6459 9.28533 34.7366 8.73067 34.9179 8.208C35.1099 7.67467 35.3766 7.21067 35.7179 6.816C36.0699 6.41067 36.4913 6.09067 36.9819 5.856C37.4726 5.62133 38.0273 5.504 38.6459 5.504C39.2966 5.504 39.8779 5.64267 40.3899 5.92C40.9126 6.18667 41.3446 6.544 41.6859 6.992C42.0273 7.44 42.2726 7.95733 42.4219 8.544C42.5819 9.12 42.6246 9.71733 42.5499 10.336H36.4699ZM43.9366 5.728H45.6486V7.328H45.6806C45.7339 7.104 45.8352 6.88533 45.9846 6.672C46.1446 6.45867 46.3312 6.26667 46.5446 6.096C46.7686 5.91467 47.0139 5.77067 47.2806 5.664C47.5472 5.55733 47.8192 5.504 48.0966 5.504C48.3099 5.504 48.4539 5.50933 48.5286 5.52C48.6139 5.53067 48.6992 5.54133 48.7846 5.552V7.312C48.6566 7.29067 48.5232 7.27467 48.3846 7.264C48.2566 7.24267 48.1286 7.232 48.0006 7.232C47.6912 7.232 47.3979 7.296 47.1206 7.424C46.8539 7.54133 46.6192 7.72267 46.4166 7.968C46.2139 8.20267 46.0539 8.496 45.9366 8.848C45.8192 9.2 45.7606 9.60533 45.7606 10.064V14H43.9366V5.728ZM54.9603 9.136C54.939 8.848 54.875 8.57067 54.7683 8.304C54.6723 8.03733 54.5336 7.808 54.3523 7.616C54.1816 7.41333 53.9683 7.25333 53.7123 7.136C53.467 7.008 53.1896 6.944 52.8803 6.944C52.5603 6.944 52.267 7.00267 52.0003 7.12C51.7443 7.22667 51.5203 7.38133 51.3283 7.584C51.147 7.776 50.9976 8.00533 50.8803 8.272C50.7736 8.53867 50.715 8.82667 50.7043 9.136H54.9603ZM50.7043 10.336C50.7043 10.656 50.747 10.9653 50.8323 11.264C50.9283 11.5627 51.067 11.824 51.2483 12.048C51.4296 12.272 51.659 12.4533 51.9363 12.592C52.2136 12.72 52.5443 12.784 52.9283 12.784C53.4616 12.784 53.8883 12.672 54.2083 12.448C54.539 12.2133 54.7843 11.8667 54.9443 11.408H56.6723C56.5763 11.856 56.411 12.256 56.1763 12.608C55.9416 12.96 55.659 13.2587 55.3283 13.504C54.9976 13.7387 54.6243 13.9147 54.2083 14.032C53.803 14.16 53.3763 14.224 52.9283 14.224C52.2776 14.224 51.7016 14.1173 51.2003 13.904C50.699 13.6907 50.2723 13.392 49.9203 13.008C49.579 12.624 49.3176 12.1653 49.1363 11.632C48.9656 11.0987 48.8803 10.512 48.8803 9.872C48.8803 9.28533 48.971 8.73067 49.1523 8.208C49.3443 7.67467 49.611 7.21067 49.9523 6.816C50.3043 6.41067 50.7256 6.09067 51.2163 5.856C51.707 5.62133 52.2616 5.504 52.8803 5.504C53.531 5.504 54.1123 5.64267 54.6243 5.92C55.147 6.18667 55.579 6.544 55.9203 6.992C56.2616 7.44 56.507 7.95733 56.6563 8.544C56.8163 9.12 56.859 9.71733 56.7843 10.336H50.7043ZM65.9629 14H64.2349V12.88H64.2029C63.9576 13.36 63.6003 13.7067 63.1309 13.92C62.6616 14.1227 62.1656 14.224 61.6429 14.224C60.9923 14.224 60.4216 14.112 59.9309 13.888C59.4509 13.6533 59.0509 13.3387 58.7309 12.944C58.4109 12.5493 58.1709 12.0853 58.0109 11.552C57.8509 11.008 57.7709 10.4267 57.7709 9.808C57.7709 9.06133 57.8723 8.416 58.0749 7.872C58.2776 7.328 58.5443 6.88 58.8749 6.528C59.2163 6.176 59.6003 5.92 60.0269 5.76C60.4643 5.58933 60.9069 5.504 61.3549 5.504C61.6109 5.504 61.8723 5.53067 62.1389 5.584C62.4056 5.62667 62.6616 5.70133 62.9069 5.808C63.1523 5.91467 63.3763 6.05333 63.5789 6.224C63.7923 6.384 63.9683 6.576 64.1069 6.8H64.1389V2.576H65.9629V14ZM59.5949 9.952C59.5949 10.304 59.6376 10.6507 59.7229 10.992C59.8189 11.3333 59.9576 11.6373 60.1389 11.904C60.3309 12.1707 60.5709 12.384 60.8589 12.544C61.1469 12.704 61.4883 12.784 61.8829 12.784C62.2883 12.784 62.6349 12.6987 62.9229 12.528C63.2216 12.3573 63.4616 12.1333 63.6429 11.856C63.8349 11.5787 63.9736 11.2693 64.0589 10.928C64.1549 10.576 64.2029 10.2187 64.2029 9.856C64.2029 8.93867 63.9949 8.224 63.5789 7.712C63.1736 7.2 62.6189 6.944 61.9149 6.944C61.4883 6.944 61.1256 7.03467 60.8269 7.216C60.5389 7.38667 60.2989 7.616 60.1069 7.904C59.9256 8.18133 59.7923 8.50133 59.7069 8.864C59.6323 9.216 59.5949 9.57867 59.5949 9.952ZM72.4533 2.576H74.2773V6.8H74.3093C74.4373 6.59733 74.592 6.416 74.7733 6.256C74.9546 6.096 75.152 5.96267 75.3653 5.856C75.5893 5.73867 75.8186 5.65333 76.0533 5.6C76.2986 5.536 76.5386 5.504 76.7733 5.504C77.424 5.504 77.9893 5.62133 78.4693 5.856C78.96 6.08 79.3653 6.39467 79.6853 6.8C80.0053 7.19467 80.2453 7.65867 80.4053 8.192C80.5653 8.72533 80.6453 9.296 80.6453 9.904C80.6453 10.4587 80.5706 10.9973 80.4213 11.52C80.2826 12.0427 80.064 12.5067 79.7653 12.912C79.4773 13.3067 79.1093 13.6267 78.6613 13.872C78.2133 14.1067 77.6853 14.224 77.0773 14.224C76.8 14.224 76.5173 14.2027 76.2293 14.16C75.952 14.128 75.6853 14.0587 75.4293 13.952C75.1733 13.8453 74.9386 13.7067 74.7253 13.536C74.5226 13.3653 74.352 13.1413 74.2133 12.864H74.1813V14H72.4533V2.576ZM78.8213 9.872C78.8213 9.49867 78.7733 9.136 78.6773 8.784C78.5813 8.432 78.4373 8.12267 78.2453 7.856C78.0533 7.57867 77.8133 7.36 77.5253 7.2C77.2373 7.02933 76.9066 6.944 76.5333 6.944C75.7653 6.944 75.184 7.21067 74.7893 7.744C74.4053 8.27733 74.2133 8.98667 74.2133 9.872C74.2133 10.288 74.2613 10.6773 74.3573 11.04C74.464 11.392 74.6186 11.696 74.8213 11.952C75.024 12.208 75.264 12.4107 75.5413 12.56C75.8293 12.7093 76.16 12.784 76.5333 12.784C76.9493 12.784 77.3013 12.6987 77.5893 12.528C77.8773 12.3573 78.112 12.1387 78.2933 11.872C78.4853 11.5947 78.6186 11.2853 78.6933 10.944C78.7786 10.592 78.8213 10.2347 78.8213 9.872ZM81.2746 5.728H83.2746L85.4346 11.904H85.4666L87.5626 5.728H89.4666L86.2506 14.448C86.1012 14.8213 85.9519 15.1787 85.8026 15.52C85.6639 15.8613 85.4879 16.16 85.2746 16.416C85.0719 16.6827 84.8159 16.8907 84.5066 17.04C84.1972 17.2 83.8026 17.28 83.3226 17.28C82.8959 17.28 82.4746 17.248 82.0586 17.184V15.648C82.2079 15.6693 82.3519 15.6907 82.4906 15.712C82.6292 15.744 82.7732 15.76 82.9226 15.76C83.1359 15.76 83.3119 15.7333 83.4506 15.68C83.5892 15.6267 83.7012 15.5467 83.7866 15.44C83.8826 15.344 83.9626 15.2267 84.0266 15.088C84.0906 14.9493 84.1492 14.7893 84.2026 14.608L84.4106 13.968L81.2746 5.728Z"
          fill="#888888"/>
    <path d="M15.0672 56.216C13.1232 56.216 11.3592 55.856 9.77517 55.136C8.19117 54.392 6.82317 53.408 5.67117 52.184C4.54317 50.936 3.66717 49.544 3.04317 48.008C2.44317 46.448 2.14317 44.84 2.14317 43.184C2.14317 41.48 2.46717 39.86 3.11517 38.324C3.76317 36.788 4.66317 35.42 5.81517 34.22C6.99117 32.996 8.37117 32.036 9.95517 31.34C11.5632 30.644 13.3152 30.296 15.2112 30.296C17.1552 30.296 18.9192 30.668 20.5032 31.412C22.0872 32.132 23.4432 33.116 24.5712 34.364C25.6992 35.612 26.5632 37.016 27.1632 38.576C27.7872 40.112 28.0992 41.696 28.0992 43.328C28.0992 45.008 27.7752 46.616 27.1272 48.152C26.5032 49.688 25.6032 51.068 24.4272 52.292C23.2752 53.492 21.9072 54.452 20.3232 55.172C18.7392 55.868 16.9872 56.216 15.0672 56.216ZM9.27117 43.256C9.27117 44.384 9.47517 45.464 9.88317 46.496C10.3152 47.528 10.9632 48.368 11.8272 49.016C12.7152 49.664 13.8192 49.988 15.1392 49.988C16.5072 49.988 17.6112 49.652 18.4512 48.98C19.3152 48.308 19.9512 47.456 20.3592 46.424C20.7672 45.368 20.9712 44.288 20.9712 43.184C20.9712 42.032 20.7552 40.952 20.3232 39.944C19.8912 38.936 19.2432 38.12 18.3792 37.496C17.5152 36.848 16.4232 36.524 15.1032 36.524C13.7592 36.524 12.6552 36.86 11.7912 37.532C10.9272 38.18 10.2912 39.02 9.88317 40.052C9.47517 41.06 9.27117 42.128 9.27117 43.256ZM30.7745 56V30.44H42.5105C43.7585 30.44 44.9105 30.692 45.9665 31.196C47.0225 31.7 47.9345 32.384 48.7025 33.248C49.4705 34.088 50.0585 35.036 50.4665 36.092C50.8985 37.148 51.1145 38.216 51.1145 39.296C51.1145 40.76 50.7905 42.14 50.1425 43.436C49.4945 44.732 48.5945 45.788 47.4425 46.604L52.8425 56H45.1385L40.6385 48.152H37.7945V56H30.7745ZM37.7945 42.032H42.2225C42.6545 42.032 43.0505 41.792 43.4105 41.312C43.7945 40.832 43.9865 40.16 43.9865 39.296C43.9865 38.408 43.7705 37.736 43.3385 37.28C42.9065 36.8 42.4745 36.56 42.0425 36.56H37.7945V42.032ZM54.7675 56V30.44H61.7875V56H54.7675ZM77.4133 56.216C75.4693 56.216 73.7053 55.856 72.1213 55.136C70.5373 54.392 69.1693 53.408 68.0173 52.184C66.8893 50.936 66.0133 49.544 65.3893 48.008C64.7893 46.448 64.4893 44.84 64.4893 43.184C64.4893 41.48 64.8133 39.86 65.4613 38.324C66.1093 36.788 67.0093 35.42 68.1613 34.22C69.3373 32.996 70.7173 32.036 72.3013 31.34C73.9093 30.644 75.6613 30.296 77.5573 30.296C79.5013 30.296 81.2653 30.668 82.8493 31.412C84.4333 32.132 85.7893 33.116 86.9173 34.364C88.0453 35.612 88.9093 37.016 89.5093 38.576C90.1333 40.112 90.4453 41.696 90.4453 43.328C90.4453 45.008 90.1213 46.616 89.4733 48.152C88.8493 49.688 87.9493 51.068 86.7733 52.292C85.6213 53.492 84.2533 54.452 82.6693 55.172C81.0853 55.868 79.3333 56.216 77.4133 56.216ZM71.6173 43.256C71.6173 44.384 71.8213 45.464 72.2293 46.496C72.6613 47.528 73.3093 48.368 74.1733 49.016C75.0613 49.664 76.1653 49.988 77.4853 49.988C78.8533 49.988 79.9573 49.652 80.7973 48.98C81.6613 48.308 82.2973 47.456 82.7053 46.424C83.1133 45.368 83.3173 44.288 83.3173 43.184C83.3173 42.032 83.1013 40.952 82.6693 39.944C82.2373 38.936 81.5893 38.12 80.7253 37.496C79.8613 36.848 78.7693 36.524 77.4493 36.524C76.1053 36.524 75.0013 36.86 74.1373 37.532C73.2733 38.18 72.6373 39.02 72.2293 40.052C71.8213 41.06 71.6173 42.128 71.6173 43.256ZM100.141 43.436V56H93.1206V30.44H98.5926L108.853 43.436V30.44H115.873V56H110.293L100.141 43.436ZM138.177 49.88V56H119.961V30.44H137.853V36.56H126.981V40.16H136.269V45.848H126.981V49.88H138.177ZM139.918 38.216H145.966C145.966 36.872 146.098 35.948 146.362 35.444C146.65 34.94 147.118 34.688 147.766 34.688C148.342 34.688 148.762 34.88 149.026 35.264C149.314 35.624 149.458 36.344 149.458 37.424C149.458 38.168 149.398 38.78 149.278 39.26C149.158 39.716 148.978 40.076 148.738 40.34C148.498 40.604 148.198 40.784 147.838 40.88C147.478 40.976 147.046 41.024 146.542 41.024H145.57V45.2H147.262C148.102 45.2 148.714 45.416 149.098 45.848C149.506 46.28 149.71 47.12 149.71 48.368C149.71 49.16 149.686 49.82 149.638 50.348C149.59 50.852 149.494 51.26 149.35 51.572C149.23 51.86 149.05 52.064 148.81 52.184C148.57 52.28 148.258 52.328 147.874 52.328C147.154 52.328 146.65 52.016 146.362 51.392C146.218 51.056 146.098 50.648 146.002 50.168C145.93 49.688 145.894 49.088 145.894 48.368H139.63C139.63 49.904 139.798 51.2 140.134 52.256C140.47 53.288 140.986 54.116 141.682 54.74C142.378 55.364 143.254 55.796 144.31 56.036C145.39 56.276 146.65 56.396 148.09 56.396C150.85 56.396 152.926 55.772 154.318 54.524C155.71 53.252 156.406 51.176 156.406 48.296C156.406 46.904 156.106 45.704 155.506 44.696C154.906 43.664 153.862 43.004 152.374 42.716V42.644C153.046 42.5 153.61 42.248 154.066 41.888C154.522 41.528 154.882 41.12 155.146 40.664C155.434 40.184 155.638 39.68 155.758 39.152C155.878 38.6 155.938 38.072 155.938 37.568C155.938 36.44 155.806 35.444 155.542 34.58C155.302 33.692 154.87 32.948 154.246 32.348C153.646 31.748 152.83 31.292 151.798 30.98C150.766 30.668 149.47 30.512 147.91 30.512C145.294 30.512 143.326 31.136 142.006 32.384C140.686 33.608 139.99 35.552 139.918 38.216Z"
          fill="#028AB4"/>
</svg>
